EESchema Schematic File Version 2
LIBS:power
LIBS:device
LIBS:transistors
LIBS:conn
LIBS:linear
LIBS:regul
LIBS:74xx
LIBS:cmos4000
LIBS:adc-dac
LIBS:memory
LIBS:xilinx
LIBS:microcontrollers
LIBS:dsp
LIBS:microchip
LIBS:analog_switches
LIBS:motorola
LIBS:texas
LIBS:intel
LIBS:audio
LIBS:interface
LIBS:digital-audio
LIBS:philips
LIBS:display
LIBS:cypress
LIBS:siliconi
LIBS:opto
LIBS:atmel
LIBS:contrib
LIBS:valves
LIBS:my-ICs
LIBS:my-power
LIBS:my-rectifiers
LIBS:my-switches
LIBS:max712-nimh-charger-cache
EELAYER 25 0
EELAYER END
$Descr A4 11693 8268
encoding utf-8
Sheet 1 1
Title ""
Date ""
Rev ""
Comp ""
Comment1 ""
Comment2 ""
Comment3 ""
Comment4 ""
$EndDescr
$Comp
L R R6
U 1 1 5D4BEED4
P 6150 2750
F 0 "R6" V 6230 2750 50  0000 C CNN
F 1 "68K" V 6150 2750 50  0000 C CNN
F 2 "Resistors_ThroughHole:Resistor_Horizontal_RM10mm" V 6080 2750 50  0001 C CNN
F 3 "" H 6150 2750 50  0000 C CNN
	1    6150 2750
	1    0    0    -1  
$EndComp
$Comp
L R R7
U 1 1 5D4BF034
P 6150 3550
F 0 "R7" V 6230 3550 50  0000 C CNN
F 1 "22K" V 6150 3550 50  0000 C CNN
F 2 "Resistors_ThroughHole:Resistor_Horizontal_RM10mm" V 6080 3550 50  0001 C CNN
F 3 "" H 6150 3550 50  0000 C CNN
	1    6150 3550
	1    0    0    -1  
$EndComp
$Comp
L R R20
U 1 1 5D4BF06B
P 5700 5400
F 0 "R20" V 5780 5400 50  0000 C CNN
F 1 "16" V 5700 5400 50  0000 C CNN
F 2 "Resistors_ThroughHole:Resistor_Horizontal_RM10mm" V 5630 5400 50  0001 C CNN
F 3 "" H 5700 5400 50  0000 C CNN
	1    5700 5400
	1    0    0    -1  
$EndComp
$Comp
L R R1
U 1 1 5D4BF206
P 5100 1850
F 0 "R1" V 5180 1850 50  0000 C CNN
F 1 "100" V 5100 1850 50  0000 C CNN
F 2 "Resistors_ThroughHole:Resistor_Horizontal_RM10mm" V 5030 1850 50  0001 C CNN
F 3 "" H 5100 1850 50  0000 C CNN
	1    5100 1850
	1    0    0    -1  
$EndComp
$Comp
L C C2
U 1 1 5D4BF2C4
P 5100 3100
F 0 "C2" H 5125 3200 50  0000 L CNN
F 1 "1µF" H 5125 3000 50  0000 L CNN
F 2 "Capacitors_ThroughHole:C_Rect_L7_W2.5_P5" H 5138 2950 50  0001 C CNN
F 3 "" H 5100 3100 50  0000 C CNN
	1    5100 3100
	1    0    0    -1  
$EndComp
$Comp
L Q_PNP_BCE Q2
U 1 1 5D4C1929
P 7400 1300
F 0 "Q2" V 7650 1500 50  0000 R CNN
F 1 "TIP42" V 7650 1350 50  0000 R CNN
F 2 "TO_SOT_Packages_THT:TO-220_Neutral123_Horizontal" H 7600 1400 50  0001 C CNN
F 3 "" H 7400 1300 50  0000 C CNN
	1    7400 1300
	0    1    -1   0   
$EndComp
$Comp
L R R11
U 1 1 5D4C1A11
P 7100 1450
F 0 "R11" V 7180 1450 50  0000 C CNN
F 1 "150" V 7100 1450 50  0000 C CNN
F 2 "Resistors_ThroughHole:Resistor_Horizontal_RM10mm" V 7030 1450 50  0001 C CNN
F 3 "" H 7100 1450 50  0000 C CNN
	1    7100 1450
	1    0    0    -1  
$EndComp
$Comp
L C C3
U 1 1 5D4C1B7D
P 6800 1450
F 0 "C3" H 6825 1550 50  0000 L CNN
F 1 "10nF" H 6825 1350 50  0000 L CNN
F 2 "Capacitors_ThroughHole:C_Rect_L7_W2.5_P5" H 6838 1300 50  0001 C CNN
F 3 "" H 6800 1450 50  0000 C CNN
	1    6800 1450
	1    0    0    -1  
$EndComp
$Comp
L D D3
U 1 1 5D4C1D0D
P 8200 1750
F 0 "D3" H 8200 1850 50  0000 C CNN
F 1 "1N5400" H 8200 1650 50  0000 C CNN
F 2 "Diodes_ThroughHole:Diode_DO-201AD_Horizontal_RM15" H 8200 1750 50  0001 C CNN
F 3 "" H 8200 1750 50  0000 C CNN
	1    8200 1750
	0    -1   -1   0   
$EndComp
$Comp
L CP C5
U 1 1 5D4C1DC0
P 8200 3950
F 0 "C5" H 8225 4050 50  0000 L CNN
F 1 "10µF 16V" H 8000 3850 50  0000 L CNN
F 2 "Capacitors_ThroughHole:C_Radial_D5_L11_P2.5" H 8238 3800 50  0001 C CNN
F 3 "" H 8200 3950 50  0000 C CNN
	1    8200 3950
	1    0    0    -1  
$EndComp
$Comp
L CONN_01X02 P3
U 1 1 5D4C1FE4
P 9000 2800
F 0 "P3" H 9000 2950 50  0000 C CNN
F 1 "BATT-OUT" V 9100 2800 50  0000 C CNN
F 2 "myConnectors:NINIGI_NS25-W2P" H 9000 2800 50  0001 C CNN
F 3 "" H 9000 2800 50  0000 C CNN
	1    9000 2800
	1    0    0    -1  
$EndComp
Text Notes 3750 5100 0    60   ~ 0
RSENSE = 0.25V / IFAST\n0.8 for 300mA
$Comp
L MAX712 U1
U 1 1 5D4BEE37
P 6700 2100
F 0 "U1" H 6950 1450 60  0000 C CNN
F 1 "MAX712" H 6950 1550 60  0000 C CNN
F 2 "Housings_DIP:DIP-16_W7.62mm" H 6700 2100 60  0001 C CNN
F 3 "" H 6700 2100 60  0000 C CNN
	1    6700 2100
	1    0    0    -1  
$EndComp
$Comp
L C C4
U 1 1 5D4BF0DD
P 6800 3950
F 0 "C4" H 6825 4050 50  0000 L CNN
F 1 "10nF" H 6850 3850 50  0000 L CNN
F 2 "Capacitors_ThroughHole:C_Rect_L7_W2.5_P5" H 6838 3800 50  0001 C CNN
F 3 "" H 6800 3950 50  0000 C CNN
	1    6800 3950
	1    0    0    -1  
$EndComp
$Comp
L R R2
U 1 1 5D4C3422
P 4850 3700
F 0 "R2" V 4750 3700 50  0000 C CNN
F 1 "10K" V 4850 3700 50  0000 C CNN
F 2 "Resistors_ThroughHole:Resistor_Horizontal_RM10mm" V 4780 3700 50  0001 C CNN
F 3 "" H 4850 3700 50  0000 C CNN
	1    4850 3700
	0    1    1    0   
$EndComp
$Comp
L HEATSINK HS1
U 1 1 5D515248
P 7650 1550
F 0 "HS1" H 7650 1750 50  0000 C CNN
F 1 "HEATSINK" H 7650 1500 50  0000 C CNN
F 2 "myHeatSinks:Heatsink_HS-80_125x14mm" H 7650 1550 50  0001 C CNN
F 3 "" H 7650 1550 50  0000 C CNN
	1    7650 1550
	1    0    0    -1  
$EndComp
$Comp
L CONN_01X02 P1
U 1 1 5D591D15
P 1650 3750
F 0 "P1" H 1650 3900 50  0000 C CNN
F 1 "CHARGE" V 1750 3750 50  0000 C CNN
F 2 "Pin_Headers:Pin_Header_Straight_1x02" H 1650 3750 50  0001 C CNN
F 3 "" H 1650 3750 50  0000 C CNN
	1    1650 3750
	-1   0    0    1   
$EndComp
$Comp
L R R8
U 1 1 5D5A6E81
P 6300 4450
F 0 "R8" V 6200 4450 50  0000 C CNN
F 1 "1K" V 6300 4450 50  0000 C CNN
F 2 "Resistors_ThroughHole:Resistor_Horizontal_RM10mm" V 6230 4450 50  0001 C CNN
F 3 "" H 6300 4450 50  0000 C CNN
	1    6300 4450
	-1   0    0    1   
$EndComp
$Comp
L R R9
U 1 1 5D5A7267
P 6500 4450
F 0 "R9" V 6400 4450 50  0000 C CNN
F 1 "1K" V 6500 4450 50  0000 C CNN
F 2 "Resistors_ThroughHole:Resistor_Horizontal_RM10mm" V 6430 4450 50  0001 C CNN
F 3 "" H 6500 4450 50  0000 C CNN
	1    6500 4450
	-1   0    0    1   
$EndComp
$Comp
L R R10
U 1 1 5D5A74F7
P 6700 4450
F 0 "R10" V 6600 4450 50  0000 C CNN
F 1 "1K" V 6700 4450 50  0000 C CNN
F 2 "Resistors_ThroughHole:Resistor_Horizontal_RM10mm" V 6630 4450 50  0001 C CNN
F 3 "" H 6700 4450 50  0000 C CNN
	1    6700 4450
	-1   0    0    -1  
$EndComp
$Comp
L R R5
U 1 1 5D5A90B6
P 5900 2850
F 0 "R5" V 5980 2850 50  0000 C CNN
F 1 "470K" V 5900 2850 50  0000 C CNN
F 2 "Resistors_ThroughHole:Resistor_Horizontal_RM10mm" V 5830 2850 50  0001 C CNN
F 3 "" H 5900 2850 50  0000 C CNN
	1    5900 2850
	1    0    0    -1  
$EndComp
$Comp
L Q_PNP_EBC Q1
U 1 1 5D5A92B3
P 5700 2600
F 0 "Q1" H 6000 2650 50  0000 R CNN
F 1 "2N5087" H 5750 2400 50  0000 R CNN
F 2 "TO_SOT_Packages_THT:TO-92_Inline_Wide" H 5900 2700 50  0001 C CNN
F 3 "" H 5700 2600 50  0000 C CNN
	1    5700 2600
	-1   0    0    1   
$EndComp
$Comp
L R R4
U 1 1 5D5A96C5
P 5600 3050
F 0 "R4" V 5680 3050 50  0000 C CNN
F 1 "5.6K" V 5600 3050 50  0000 C CNN
F 2 "Resistors_ThroughHole:Resistor_Horizontal_RM10mm" V 5530 3050 50  0001 C CNN
F 3 "" H 5600 3050 50  0000 C CNN
	1    5600 3050
	1    0    0    -1  
$EndComp
$Comp
L Led_Small D2
U 1 1 5D5A9833
P 5600 3400
F 0 "D2" H 5600 3500 50  0000 L CNN
F 1 "RED" H 5500 3300 50  0000 L CNN
F 2 "LEDs:LED-3MM" V 5600 3400 50  0001 C CNN
F 3 "" V 5600 3400 50  0000 C CNN
	1    5600 3400
	0    -1   -1   0   
$EndComp
$Comp
L ZENER D1
U 1 1 5D5AA390
P 5350 3450
F 0 "D1" H 5350 3550 50  0000 C CNN
F 1 "4.7V" H 5350 3350 50  0000 C CNN
F 2 "Diodes_ThroughHole:Diode_DO-35_SOD27_Horizontal_RM10" H 5350 3450 50  0001 C CNN
F 3 "" H 5350 3450 50  0000 C CNN
	1    5350 3450
	0    1    1    0   
$EndComp
$Comp
L R R3
U 1 1 5D5AA80F
P 5600 1850
F 0 "R3" V 5680 1850 50  0000 C CNN
F 1 "620" V 5600 1850 50  0000 C CNN
F 2 "Resistors_ThroughHole:Resistor_Horizontal_RM10mm" V 5530 1850 50  0001 C CNN
F 3 "" H 5600 1850 50  0000 C CNN
	1    5600 1850
	1    0    0    -1  
$EndComp
$Comp
L C C1
U 1 1 5D515C74
P 6400 1450
F 0 "C1" H 6425 1550 50  0000 L CNN
F 1 "1µF MLCC" H 6250 1350 50  0000 L CNN
F 2 "Capacitors_ThroughHole:C_Rect_L7_W2.5_P5" H 6438 1300 50  0001 C CNN
F 3 "" H 6400 1450 50  0000 C CNN
	1    6400 1450
	-1   0    0    1   
$EndComp
$Comp
L GND #PWR01
U 1 1 5D5B59F1
P 5200 4800
F 0 "#PWR01" H 5200 4550 50  0001 C CNN
F 1 "GND" H 5200 4650 50  0000 C CNN
F 2 "" H 5200 4800 50  0000 C CNN
F 3 "" H 5200 4800 50  0000 C CNN
	1    5200 4800
	1    0    0    -1  
$EndComp
Text Notes 5000 1500 0    60   ~ 0
R1 = (6V - 5V) / 0.01
$Comp
L CONN_01X03 P2
U 1 1 5D5BE0D7
P 9000 3350
F 0 "P2" H 9000 3550 50  0000 C CNN
F 1 "VI-BATT" V 9100 3350 50  0000 C CNN
F 2 "Pin_Headers:Pin_Header_Straight_1x03" H 9000 3350 50  0001 C CNN
F 3 "" H 9000 3350 50  0000 C CNN
	1    9000 3350
	1    0    0    -1  
$EndComp
$Comp
L Led_Small D4
U 1 1 5D5BEA73
P 3800 1900
F 0 "D4" H 3750 2025 50  0000 L CNN
F 1 "BLUE" H 3700 1800 50  0000 L CNN
F 2 "LEDs:LED-3MM" V 3800 1900 50  0001 C CNN
F 3 "" V 3800 1900 50  0000 C CNN
	1    3800 1900
	0    -1   -1   0   
$EndComp
$Comp
L R R12
U 1 1 5D5BEA7A
P 3800 1550
F 0 "R12" V 3880 1550 50  0000 C CNN
F 1 "6.8K" V 3800 1550 50  0000 C CNN
F 2 "Resistors_ThroughHole:Resistor_Horizontal_RM10mm" V 3730 1550 50  0001 C CNN
F 3 "" H 3800 1550 50  0000 C CNN
	1    3800 1550
	1    0    0    -1  
$EndComp
$Comp
L CONN_01X02 P4
U 1 1 5D5C352D
P 1650 1250
F 0 "P4" H 1650 1400 50  0000 C CNN
F 1 "12.5V-IN" V 1750 1250 50  0000 C CNN
F 2 "myConnectors:JST-B2P-VH" H 1650 1250 50  0001 C CNN
F 3 "" H 1650 1250 50  0000 C CNN
	1    1650 1250
	-1   0    0    1   
$EndComp
$Comp
L R R13
U 1 1 5D5D260F
P 4300 5400
F 0 "R13" V 4380 5400 50  0000 C CNN
F 1 "0.5" V 4300 5400 50  0000 C CNN
F 2 "Resistors_ThroughHole:Resistor_Horizontal_RM10mm" V 4230 5400 50  0001 C CNN
F 3 "" H 4300 5400 50  0000 C CNN
	1    4300 5400
	1    0    0    -1  
$EndComp
$Comp
L R R14
U 1 1 5D5D2689
P 4500 5400
F 0 "R14" V 4580 5400 50  0000 C CNN
F 1 "1" V 4500 5400 50  0000 C CNN
F 2 "Resistors_ThroughHole:Resistor_Horizontal_RM10mm" V 4430 5400 50  0001 C CNN
F 3 "" H 4500 5400 50  0000 C CNN
	1    4500 5400
	1    0    0    -1  
$EndComp
$Comp
L R R15
U 1 1 5D5D2706
P 4700 5400
F 0 "R15" V 4780 5400 50  0000 C CNN
F 1 "1" V 4700 5400 50  0000 C CNN
F 2 "Resistors_ThroughHole:Resistor_Horizontal_RM10mm" V 4630 5400 50  0001 C CNN
F 3 "" H 4700 5400 50  0000 C CNN
	1    4700 5400
	1    0    0    -1  
$EndComp
$Comp
L R R16
U 1 1 5D5D2786
P 4900 5400
F 0 "R16" V 4980 5400 50  0000 C CNN
F 1 "1" V 4900 5400 50  0000 C CNN
F 2 "Resistors_ThroughHole:Resistor_Horizontal_RM10mm" V 4830 5400 50  0001 C CNN
F 3 "" H 4900 5400 50  0000 C CNN
	1    4900 5400
	1    0    0    -1  
$EndComp
$Comp
L R R17
U 1 1 5D5D287D
P 5100 5400
F 0 "R17" V 5180 5400 50  0000 C CNN
F 1 "2" V 5100 5400 50  0000 C CNN
F 2 "Resistors_ThroughHole:Resistor_Horizontal_RM10mm" V 5030 5400 50  0001 C CNN
F 3 "" H 5100 5400 50  0000 C CNN
	1    5100 5400
	1    0    0    -1  
$EndComp
$Comp
L R R18
U 1 1 5D5D297A
P 5300 5400
F 0 "R18" V 5380 5400 50  0000 C CNN
F 1 "3.9" V 5300 5400 50  0000 C CNN
F 2 "Resistors_ThroughHole:Resistor_Horizontal_RM10mm" V 5230 5400 50  0001 C CNN
F 3 "" H 5300 5400 50  0000 C CNN
	1    5300 5400
	1    0    0    -1  
$EndComp
$Comp
L R R19
U 1 1 5D5D2B71
P 5500 5400
F 0 "R19" V 5580 5400 50  0000 C CNN
F 1 "8.2" V 5500 5400 50  0000 C CNN
F 2 "Resistors_ThroughHole:Resistor_Horizontal_RM10mm" V 5430 5400 50  0001 C CNN
F 3 "" H 5500 5400 50  0000 C CNN
	1    5500 5400
	1    0    0    -1  
$EndComp
$Comp
L CONN_02X08 P6
U 1 1 5D5D46D0
P 4950 6150
F 0 "P6" H 4950 6600 50  0000 C CNN
F 1 "CHARGE-CURRENT" V 4950 6150 50  0000 C CNN
F 2 "Pin_Headers:Pin_Header_Straight_2x08" H 4950 4950 50  0001 C CNN
F 3 "" H 4950 4950 50  0000 C CNN
	1    4950 6150
	0    -1   -1   0   
$EndComp
Text GLabel 8450 2650 1    60   Input ~ 0
BATT+
Text GLabel 8600 2650 1    60   Input ~ 0
BATT-
$Comp
L GND #PWR02
U 1 1 5D5D5932
P 4500 2700
F 0 "#PWR02" H 4500 2450 50  0001 C CNN
F 1 "GND" H 4500 2550 50  0000 C CNN
F 2 "" H 4500 2700 50  0000 C CNN
F 3 "" H 4500 2700 50  0000 C CNN
	1    4500 2700
	1    0    0    -1  
$EndComp
$Comp
L GND #PWR03
U 1 1 5D5D603E
P 3800 2150
F 0 "#PWR03" H 3800 1900 50  0001 C CNN
F 1 "GND" H 3800 2000 50  0000 C CNN
F 2 "" H 3800 2150 50  0000 C CNN
F 3 "" H 3800 2150 50  0000 C CNN
	1    3800 2150
	1    0    0    -1  
$EndComp
$Comp
L GND #PWR04
U 1 1 5D5D61D8
P 1950 1400
F 0 "#PWR04" H 1950 1150 50  0001 C CNN
F 1 "GND" H 1950 1250 50  0000 C CNN
F 2 "" H 1950 1400 50  0000 C CNN
F 3 "" H 1950 1400 50  0000 C CNN
	1    1950 1400
	1    0    0    -1  
$EndComp
$Comp
L C C6
U 1 1 5D5D64E4
P 4800 1850
F 0 "C6" H 4825 1950 50  0000 L CNN
F 1 "100nF" H 4550 1750 50  0000 L CNN
F 2 "Capacitors_ThroughHole:C_Rect_L7_W2.5_P5" H 4838 1700 50  0001 C CNN
F 3 "" H 4800 1850 50  0000 C CNN
	1    4800 1850
	1    0    0    -1  
$EndComp
$Comp
L GND #PWR05
U 1 1 5D5D6957
P 4800 2100
F 0 "#PWR05" H 4800 1850 50  0001 C CNN
F 1 "GND" H 4800 1950 50  0000 C CNN
F 2 "" H 4800 2100 50  0000 C CNN
F 3 "" H 4800 2100 50  0000 C CNN
	1    4800 2100
	1    0    0    -1  
$EndComp
$Comp
L +9V #PWR06
U 1 1 5D5D6BD1
P 3800 1100
F 0 "#PWR06" H 3800 950 50  0001 C CNN
F 1 "+9V" H 3800 1240 50  0000 C CNN
F 2 "" H 3800 1100 50  0000 C CNN
F 3 "" H 3800 1100 50  0000 C CNN
	1    3800 1100
	1    0    0    -1  
$EndComp
$Comp
L GND #PWR07
U 1 1 5D5D80FA
P 6400 1700
F 0 "#PWR07" H 6400 1450 50  0001 C CNN
F 1 "GND" H 6400 1550 50  0000 C CNN
F 2 "" H 6400 1700 50  0000 C CNN
F 3 "" H 6400 1700 50  0000 C CNN
	1    6400 1700
	1    0    0    -1  
$EndComp
$Comp
L R R21
U 1 1 5D5D97F9
P 5900 5400
F 0 "R21" V 5980 5400 50  0000 C CNN
F 1 "330" V 5900 5400 50  0000 C CNN
F 2 "Resistors_ThroughHole:Resistor_Horizontal_RM10mm" V 5830 5400 50  0001 C CNN
F 3 "" H 5900 5400 50  0000 C CNN
	1    5900 5400
	1    0    0    1   
$EndComp
$Comp
L Q_NPN_EBC Q3
U 1 1 5D5E45E0
P 4500 1700
F 0 "Q3" V 4400 1800 50  0000 R CNN
F 1 "2N2222" V 4750 1850 50  0000 R CNN
F 2 "TO_SOT_Packages_THT:TO-92_Inline_Wide" H 4700 1800 50  0001 C CNN
F 3 "" H 4500 1700 50  0000 C CNN
	1    4500 1700
	0    -1   -1   0   
$EndComp
$Comp
L ZENER D5
U 1 1 5D5E4708
P 4500 2400
F 0 "D5" H 4500 2500 50  0000 C CNN
F 1 "6.8V" H 4500 2300 50  0000 C CNN
F 2 "Diodes_ThroughHole:Diode_DO-35_SOD27_Horizontal_RM10" H 4500 2400 50  0001 C CNN
F 3 "" H 4500 2400 50  0000 C CNN
	1    4500 2400
	0    1    1    0   
$EndComp
$Comp
L R R22
U 1 1 5D5E5F6F
P 4200 1850
F 0 "R22" V 4280 1850 50  0000 C CNN
F 1 "3.3K" V 4200 1850 50  0000 C CNN
F 2 "Resistors_ThroughHole:Resistor_Horizontal_RM10mm" V 4130 1850 50  0001 C CNN
F 3 "" H 4200 1850 50  0000 C CNN
	1    4200 1850
	1    0    0    -1  
$EndComp
Text GLabel 6150 2000 1    60   Input ~ 0
REF
Text GLabel 5950 2000 1    60   Input ~ 0
V+
$Comp
L +6V #PWR08
U 1 1 5D5E6FDD
P 4800 1500
F 0 "#PWR08" H 4800 1350 50  0001 C CNN
F 1 "+6V" H 4800 1640 50  0000 C CNN
F 2 "" H 4800 1500 50  0000 C CNN
F 3 "" H 4800 1500 50  0000 C CNN
	1    4800 1500
	1    0    0    -1  
$EndComp
$Comp
L LM317T U2
U 1 1 5D602336
P 2700 1250
F 0 "U2" H 2500 1450 50  0000 C CNN
F 1 "LM317T" H 2650 1450 50  0000 L CNN
F 2 "TO_SOT_Packages_THT:TO-220_Neutral123_Horizontal" H 2700 1350 50  0001 C CIN
F 3 "" H 2700 1250 50  0000 C CNN
	1    2700 1250
	1    0    0    -1  
$EndComp
$Comp
L CP C9
U 1 1 5D602776
P 3500 1450
F 0 "C9" H 3525 1550 50  0000 L CNN
F 1 "10µF 16V" H 3350 1300 50  0000 L CNN
F 2 "Capacitors_ThroughHole:C_Radial_D5_L11_P2.5" H 3538 1300 50  0001 C CNN
F 3 "" H 3500 1450 50  0000 C CNN
	1    3500 1450
	1    0    0    -1  
$EndComp
$Comp
L R R23
U 1 1 5D602B53
P 2700 1950
F 0 "R23" V 2780 1950 50  0000 C CNN
F 1 "750" V 2700 1950 50  0000 C CNN
F 2 "Resistors_ThroughHole:Resistor_Horizontal_RM10mm" V 2630 1950 50  0001 C CNN
F 3 "" H 2700 1950 50  0000 C CNN
	1    2700 1950
	1    0    0    -1  
$EndComp
$Comp
L R R24
U 1 1 5D602F18
P 3200 1450
F 0 "R24" V 3100 1450 50  0000 C CNN
F 1 "120" V 3200 1450 50  0000 C CNN
F 2 "Resistors_ThroughHole:Resistor_Horizontal_RM10mm" V 3130 1450 50  0001 C CNN
F 3 "" H 3200 1450 50  0000 C CNN
	1    3200 1450
	1    0    0    -1  
$EndComp
$Comp
L GND #PWR09
U 1 1 5D603755
P 3500 1700
F 0 "#PWR09" H 3500 1450 50  0001 C CNN
F 1 "GND" H 3500 1550 50  0000 C CNN
F 2 "" H 3500 1700 50  0000 C CNN
F 3 "" H 3500 1700 50  0000 C CNN
	1    3500 1700
	1    0    0    -1  
$EndComp
$Comp
L GND #PWR010
U 1 1 5D60392A
P 2700 2200
F 0 "#PWR010" H 2700 1950 50  0001 C CNN
F 1 "GND" H 2700 2050 50  0000 C CNN
F 2 "" H 2700 2200 50  0000 C CNN
F 3 "" H 2700 2200 50  0000 C CNN
	1    2700 2200
	1    0    0    -1  
$EndComp
$Comp
L CP C7
U 1 1 5D603B32
P 2200 1450
F 0 "C7" H 2225 1550 50  0000 L CNN
F 1 "10µF 25V" H 2050 1300 50  0000 L CNN
F 2 "Capacitors_ThroughHole:C_Radial_D5_L11_P2.5" H 2238 1300 50  0001 C CNN
F 3 "" H 2200 1450 50  0000 C CNN
	1    2200 1450
	1    0    0    -1  
$EndComp
$Comp
L GND #PWR011
U 1 1 5D603D42
P 2200 1700
F 0 "#PWR011" H 2200 1450 50  0001 C CNN
F 1 "GND" H 2200 1550 50  0000 C CNN
F 2 "" H 2200 1700 50  0000 C CNN
F 3 "" H 2200 1700 50  0000 C CNN
	1    2200 1700
	1    0    0    -1  
$EndComp
$Comp
L CP C8
U 1 1 5D603F1F
P 3200 1950
F 0 "C8" H 3225 2050 50  0000 L CNN
F 1 "10µF 16V" H 3050 1800 50  0000 L CNN
F 2 "Capacitors_ThroughHole:C_Radial_D5_L11_P2.5" H 3238 1800 50  0001 C CNN
F 3 "" H 3200 1950 50  0000 C CNN
	1    3200 1950
	1    0    0    -1  
$EndComp
$Comp
L GND #PWR012
U 1 1 5D60411F
P 3200 2200
F 0 "#PWR012" H 3200 1950 50  0001 C CNN
F 1 "GND" H 3200 2050 50  0000 C CNN
F 2 "" H 3200 2200 50  0000 C CNN
F 3 "" H 3200 2200 50  0000 C CNN
	1    3200 2200
	1    0    0    -1  
$EndComp
$Comp
L +12.5V #PWR013
U 1 1 5D60613C
P 2200 1100
F 0 "#PWR013" H 2200 950 50  0001 C CNN
F 1 "+12.5V" H 2200 1250 50  0000 C CNN
F 2 "" H 2200 1100 50  0000 C CNN
F 3 "" H 2200 1100 50  0000 C CNN
	1    2200 1100
	1    0    0    -1  
$EndComp
$Comp
L CONN_02X12 P5
U 1 1 5D63F9AF
P 6950 5400
F 0 "P5" H 6950 6050 50  0000 C CNN
F 1 "PROGRAM" V 6950 5400 50  0000 C CNN
F 2 "Pin_Headers:Pin_Header_Straight_2x12" H 6950 4200 50  0001 C CNN
F 3 "" H 6950 4200 50  0000 C CNN
	1    6950 5400
	0    -1   1    0   
$EndComp
Wire Wire Line
	6150 2900 6150 3400
Wire Wire Line
	6150 2500 6500 2500
Wire Wire Line
	6150 2000 6150 2600
Connection ~ 6150 3000
Wire Wire Line
	6150 3700 6150 4200
Wire Wire Line
	7000 4200 7000 3700
Connection ~ 6800 4200
Wire Wire Line
	7200 4200 7200 3700
Connection ~ 7000 4200
Connection ~ 7200 4200
Wire Wire Line
	7400 4700 7400 3700
Wire Wire Line
	5100 2000 5100 2950
Wire Wire Line
	5100 2100 6500 2100
Connection ~ 5100 2100
Wire Wire Line
	5100 3250 5100 5250
Connection ~ 6150 4200
Connection ~ 7400 4700
Wire Wire Line
	7100 1600 7100 1700
Wire Wire Line
	6800 1700 7400 1700
Wire Wire Line
	7400 1500 7400 1800
Connection ~ 7400 1700
Wire Wire Line
	7100 1200 7100 1300
Connection ~ 7100 1200
Wire Wire Line
	6800 1200 6800 1300
Connection ~ 6800 1200
Wire Wire Line
	6800 1600 6800 1700
Connection ~ 7100 1700
Wire Wire Line
	6500 2400 6150 2400
Connection ~ 6150 2500
Wire Wire Line
	8200 1600 8200 1200
Wire Wire Line
	8200 1900 8200 3800
Wire Wire Line
	8200 4700 8200 4100
Wire Wire Line
	8450 2850 8800 2850
Wire Wire Line
	8450 4200 8450 2850
Wire Wire Line
	8200 2750 8800 2750
Connection ~ 8200 2750
Connection ~ 8200 2300
Wire Wire Line
	6800 3700 6800 3800
Wire Wire Line
	6800 4200 6800 4100
Wire Wire Line
	6400 2200 6500 2200
Wire Wire Line
	6400 2100 6400 4100
Connection ~ 6400 2100
Wire Wire Line
	5900 3100 6500 3100
Wire Wire Line
	6150 3000 6500 3000
Connection ~ 8200 4700
Connection ~ 6300 2500
Wire Wire Line
	6300 2500 6300 4300
Wire Wire Line
	7700 2650 7900 2650
Wire Wire Line
	7900 2650 7900 5800
Wire Wire Line
	7700 2550 7950 2550
Wire Wire Line
	7950 2550 7950 5750
Connection ~ 6400 2200
Wire Wire Line
	1850 3700 4700 3700
Wire Wire Line
	5900 3000 5900 3800
Wire Wire Line
	5900 3700 5000 3700
Wire Wire Line
	5900 3800 1850 3800
Connection ~ 5900 3700
Wire Wire Line
	8700 4700 8700 3450
Wire Wire Line
	6400 4800 6400 5150
Wire Wire Line
	6300 4800 7300 4800
Wire Wire Line
	6700 4800 6700 5150
Connection ~ 6400 4800
Wire Wire Line
	6800 4850 6800 5150
Connection ~ 6500 4850
Wire Wire Line
	6600 4900 7500 4900
Wire Wire Line
	6900 4900 6900 5150
Connection ~ 6600 4900
Wire Wire Line
	6500 4200 6500 4300
Connection ~ 6500 4200
Wire Wire Line
	6400 4100 6700 4100
Wire Wire Line
	6700 4100 6700 4300
Wire Wire Line
	6400 5650 6400 5750
Wire Wire Line
	6400 5750 7950 5750
Wire Wire Line
	6600 5750 6600 5650
Wire Wire Line
	6500 5650 6500 5750
Connection ~ 6500 5750
Connection ~ 6600 5750
Wire Wire Line
	7900 5800 6700 5800
Wire Wire Line
	6700 5800 6700 5650
Wire Wire Line
	6800 5650 6800 5800
Connection ~ 6800 5800
Wire Wire Line
	6900 5650 6900 5800
Connection ~ 6900 5800
Wire Wire Line
	7700 2850 7800 2850
Wire Wire Line
	7800 2850 7800 5900
Connection ~ 6800 4850
Wire Wire Line
	7700 2750 7850 2750
Wire Wire Line
	7850 2750 7850 5850
Connection ~ 6700 4800
Connection ~ 5900 3100
Wire Wire Line
	5900 2600 5900 2700
Connection ~ 5600 4700
Wire Wire Line
	5600 3300 5600 3200
Wire Wire Line
	5600 2900 5600 2800
Wire Wire Line
	5600 4700 5600 3500
Wire Wire Line
	5350 3250 5350 2300
Wire Wire Line
	5350 2300 5600 2300
Connection ~ 5600 2300
Wire Wire Line
	5600 2000 5600 2400
Wire Wire Line
	5350 4700 5350 3650
Connection ~ 5350 4700
Wire Wire Line
	7000 4800 7000 5150
Connection ~ 7000 4800
Wire Wire Line
	7100 4850 7100 5150
Connection ~ 7100 4850
Wire Wire Line
	7200 4900 7200 5150
Connection ~ 6900 4900
Wire Wire Line
	7500 4900 7500 5150
Connection ~ 7200 4900
Wire Wire Line
	7400 4850 7400 5150
Wire Wire Line
	7300 4800 7300 5150
Wire Wire Line
	7850 5850 7000 5850
Wire Wire Line
	7200 5850 7200 5650
Wire Wire Line
	7000 5850 7000 5650
Connection ~ 7200 5850
Wire Wire Line
	7100 5850 7100 5650
Connection ~ 7100 5850
Wire Wire Line
	7300 5650 7300 5900
Wire Wire Line
	7300 5900 7800 5900
Wire Wire Line
	7500 5650 7500 5900
Connection ~ 7500 5900
Wire Wire Line
	7400 5900 7400 5650
Connection ~ 7400 5900
Connection ~ 4200 1200
Wire Wire Line
	8800 3250 8200 3250
Connection ~ 8200 3250
Wire Wire Line
	8450 3350 8800 3350
Connection ~ 8450 3350
Wire Wire Line
	5100 4200 8450 4200
Wire Wire Line
	3800 1800 3800 1700
Wire Wire Line
	3800 1100 3800 1400
Connection ~ 3800 1200
Wire Wire Line
	8700 3450 8800 3450
Wire Wire Line
	1850 1300 1950 1300
Wire Wire Line
	4300 5150 5900 5150
Wire Wire Line
	4300 5150 4300 5250
Connection ~ 5100 4200
Wire Wire Line
	4500 5250 4500 5150
Connection ~ 4500 5150
Wire Wire Line
	4700 5150 4700 5250
Connection ~ 4700 5150
Wire Wire Line
	4900 5250 4900 5150
Connection ~ 4900 5150
Connection ~ 5100 5150
Wire Wire Line
	5700 5150 5700 5250
Wire Wire Line
	5500 5250 5500 5150
Connection ~ 5500 5150
Wire Wire Line
	5300 5250 5300 5150
Connection ~ 5300 5150
Wire Wire Line
	5100 5650 5100 5550
Wire Wire Line
	4300 5550 4300 5750
Wire Wire Line
	4600 5900 4600 5750
Wire Wire Line
	4600 5750 4300 5750
Wire Wire Line
	4500 5550 4500 5700
Wire Wire Line
	4500 5700 4700 5700
Wire Wire Line
	4700 5700 4700 5900
Wire Wire Line
	4700 5550 4700 5650
Wire Wire Line
	4700 5650 4800 5650
Wire Wire Line
	4800 5650 4800 5900
Wire Wire Line
	4900 5900 4900 5550
Wire Wire Line
	5100 5650 5000 5650
Wire Wire Line
	5000 5650 5000 5900
Wire Wire Line
	5100 5900 5100 5700
Wire Wire Line
	5100 5700 5300 5700
Wire Wire Line
	5300 5700 5300 5550
Wire Wire Line
	5200 5900 5200 5750
Wire Wire Line
	5200 5750 5500 5750
Wire Wire Line
	5500 5750 5500 5550
Wire Wire Line
	5300 5900 5300 5800
Wire Wire Line
	5300 5800 5700 5800
Wire Wire Line
	5700 5800 5700 5550
Wire Wire Line
	6000 4700 6000 6500
Connection ~ 6000 4700
Wire Wire Line
	6000 6500 4600 6500
Wire Wire Line
	4600 6500 4600 6400
Wire Wire Line
	4700 6400 4700 6500
Connection ~ 4700 6500
Wire Wire Line
	4800 6500 4800 6400
Connection ~ 4800 6500
Wire Wire Line
	4900 6400 4900 6500
Connection ~ 4900 6500
Wire Wire Line
	5000 6500 5000 6400
Connection ~ 5000 6500
Wire Wire Line
	5100 6400 5100 6500
Connection ~ 5100 6500
Wire Wire Line
	5200 6500 5200 6400
Connection ~ 5200 6500
Wire Wire Line
	5300 6400 5300 6500
Connection ~ 5300 6500
Wire Wire Line
	8450 2650 8450 2750
Connection ~ 8450 2750
Wire Wire Line
	8600 2650 8600 2850
Connection ~ 8600 2850
Wire Wire Line
	4300 1600 4200 1600
Wire Wire Line
	4700 1600 5600 1600
Wire Wire Line
	5100 1600 5100 1700
Wire Wire Line
	4500 2600 4500 2700
Wire Wire Line
	5200 4800 5200 4700
Wire Wire Line
	3800 2150 3800 2000
Wire Wire Line
	1950 1300 1950 1400
Wire Wire Line
	4800 1500 4800 1700
Connection ~ 4800 1600
Wire Wire Line
	4800 2100 4800 2000
Wire Wire Line
	5600 1600 5600 1700
Connection ~ 5100 1600
Wire Wire Line
	6400 1200 6400 1300
Connection ~ 6400 1200
Wire Wire Line
	6400 1600 6400 1700
Wire Wire Line
	5900 5150 5900 5250
Connection ~ 5700 5150
Wire Wire Line
	5900 5550 5900 5650
Wire Wire Line
	5900 5650 6000 5650
Connection ~ 6000 5650
Wire Wire Line
	4500 1900 4500 2200
Wire Wire Line
	3100 1200 7200 1200
Wire Wire Line
	4200 1200 4200 1700
Connection ~ 4200 1600
Wire Wire Line
	4200 2000 4200 2100
Wire Wire Line
	4200 2100 4500 2100
Connection ~ 4500 2100
Connection ~ 6150 2400
Wire Wire Line
	5950 2000 5950 2100
Connection ~ 5950 2100
Wire Wire Line
	3500 1300 3500 1200
Connection ~ 3500 1200
Wire Wire Line
	3200 1300 3200 1200
Connection ~ 3200 1200
Wire Wire Line
	3200 1600 3200 1800
Wire Wire Line
	3200 1700 2700 1700
Wire Wire Line
	2700 1500 2700 1800
Connection ~ 2700 1700
Wire Wire Line
	3500 1700 3500 1600
Wire Wire Line
	2700 2200 2700 2100
Wire Wire Line
	2200 1100 2200 1300
Wire Wire Line
	1850 1200 2300 1200
Wire Wire Line
	2200 1600 2200 1700
Connection ~ 3200 1700
Wire Wire Line
	3200 2100 3200 2200
Connection ~ 2200 1200
Wire Wire Line
	6500 4600 6500 5150
Wire Wire Line
	6600 4750 6600 5150
Wire Wire Line
	6600 4750 6700 4750
Wire Wire Line
	6700 4750 6700 4600
Wire Wire Line
	6500 4850 7400 4850
Wire Wire Line
	6300 4600 6300 4800
Wire Wire Line
	6500 4200 7000 4200
Wire Wire Line
	8200 2300 7700 2300
Wire Wire Line
	8200 1200 7600 1200
Wire Wire Line
	5200 4700 8700 4700
$Comp
L CONN_01X02 P7
U 1 1 5D67A97B
P 1650 3250
F 0 "P7" H 1650 3400 50  0000 C CNN
F 1 "9V-OUT" V 1750 3250 50  0000 C CNN
F 2 "Pin_Headers:Pin_Header_Straight_1x02" H 1650 3250 50  0001 C CNN
F 3 "" H 1650 3250 50  0000 C CNN
	1    1650 3250
	-1   0    0    1   
$EndComp
$Comp
L GND #PWR014
U 1 1 5D67AB71
P 1950 3400
F 0 "#PWR014" H 1950 3150 50  0001 C CNN
F 1 "GND" H 1950 3250 50  0000 C CNN
F 2 "" H 1950 3400 50  0000 C CNN
F 3 "" H 1950 3400 50  0000 C CNN
	1    1950 3400
	1    0    0    -1  
$EndComp
Wire Wire Line
	1850 3300 1950 3300
Wire Wire Line
	1950 3300 1950 3400
$Comp
L +9V #PWR015
U 1 1 5D67ADE5
P 1950 3100
F 0 "#PWR015" H 1950 2950 50  0001 C CNN
F 1 "+9V" H 1950 3240 50  0000 C CNN
F 2 "" H 1950 3100 50  0000 C CNN
F 3 "" H 1950 3100 50  0000 C CNN
	1    1950 3100
	1    0    0    -1  
$EndComp
Wire Wire Line
	1950 3100 1950 3200
Wire Wire Line
	1950 3200 1850 3200
$EndSCHEMATC
